…
### Problem 1 cont.

Finally, we merge the precipitation datasets using a left join and map
the month column to integers

``` r
month_df = tibble(month = 1:12,
                  month_name = month.name)
precip_df = bind_rows(precip_2017_df, precip_2018_df)
left_join(precip_df, month_df, by = "month")
```

    ## # A tibble: 24 x 4
    ##     year month total month_name
    ##    <dbl> <dbl> <dbl> <chr>     
    ##  1  2017     1  2.34 January   
    ##  2  2017     2  1.46 February  
    ##  3  2017     3  3.57 March     
    ##  4  2017     4  3.99 April     
    ##  5  2017     5  5.64 May       
    ##  6  2017     6  1.4  June      
    ##  7  2017     7  7.09 July      
    ##  8  2017     8  4.44 August    
    ##  9  2017     9  1.95 September 
    ## 10  2017    10  0    October   
    ## # … with 14 more rows

``` r
precip_df
```

    ## # A tibble: 24 x 3
    ##     year month total
    ##    <dbl> <dbl> <dbl>
    ##  1  2017     1  2.34
    ##  2  2017     2  1.46
    ##  3  2017     3  3.57
    ##  4  2017     4  3.99
    ##  5  2017     5  5.64
    ##  6  2017     6  1.4 
    ##  7  2017     7  7.09
    ##  8  2017     8  4.44
    ##  9  2017     9  1.95
    ## 10  2017    10  0   
    ## # … with 14 more rows
…
